itemcode,id_categoria,id_lineaProducto,titulo_articulo,descripcion_corta,descripcion_corta_en,titulo_descripcion,titulo_descripcion_en,descripcion,descripcion_en,priority,published,imagen,caracteristicas,caracteristicas_en,video,specs,colores
LED156200,Computo,Monitores,"LED 15.6 WIDESCREEN 200","Monitor de 15.6"" LED-W15-200","15.6"" LED-W15-200 Monitor","El tamaño perfecto","The perfect size","El monitor LED Widescreen de 15.6"" Vorago proporciona imágenes claras, nítidas y colores más vivos para una experiencia visual extraordinaria.","The 15.6 ""Vorago Widescreen LED monitor provides clear, crisp images and more vivid colors for an extraordinary visual experience.",0,1,1__imagen_1573244323.jpg,"<p><img alt="""" src=""http://localhost/vorago/images/editor/2efe871.png"" style=""float:left; height:41px; width:51px"" />El tama&ntilde;o perfecto<br />
Su dise&ntilde;o delgado de 19.5 pulgadas le dan un estilo singular</p>

<hr />
<p><img alt=""Equipos"" src=""http://localhost/vorago/images/editor/3dce9f8.png"" style=""float:left"" />Calidad de imagen<br />
Su contraste din&aacute;mico es de 1000:1 que te llevan a un mundo de realidad y detalle en su m&aacute;s amplia expresi&oacute;n.</p>

<hr />
<p><img alt=""Equipos"" src=""http://localhost/vorago/images/editor/4692095.png"" style=""float:left"" />Multicolores<br />
La claridad de la pantalla es excelente con 16.7 millones de colores para disfrutar al m&aacute;ximo de tus deportes, videojuegos o pel&iacute;culas favoritas.</p>

<hr />
<p><img alt=""Equipos"" src=""http://localhost/vorago/images/editor/55ac206.png"" style=""float:left"" />C&oacute;modo<br />
Para una visualizaci&oacute;n suave y m&aacute;s clara su r&aacute;pido tiempo de respuesta es de 2-5ms.</p>

<hr />",,TM4fzM9b32E,"control de musica","Negro,Azul"
MO-501,Teclado/Mouse,Mouse,"Start The Game MO-501","Mouse Gamer MO-501",,"Para no soltarlo jamas",,"Vence las m?s duras batallas con el mouse MO-501 de Vorago, su dise?o gamer es ergon?mico para un mejor agarre que te ofrece absoluta comodidad, precisi?n y velocidad para dar en el blanco en el momento perfecto.",,0,1,2__imagen_1573255351.png,"<table cellspacing=""0"" style=""width:60pt"">
	<tbody>
		<tr>
			<td style=""height:15.0pt; vertical-align:bottom; white-space:nowrap; width:60pt"">
			<hr />&nbsp;
			<p><br />
			<br />
			Comodidad.<br />
			Su cable reforzado mide 1.8 metros para que el desplazamiento no sea un problema a la hora de jugar.</p>

			<hr />&nbsp;
			<p><br />
			<br />
			Presici&oacute;n.<br />
			Los dpis son configurables para jugadas m&aacute;s precisas: 1000/ 1600/ 2400/ 3200.</p>

			<hr />&nbsp;
			<p><br />
			<br />
			A toda velocidad.<br />
			Cuenta con detecci&oacute;n de movimiento de alta velocidad de hasta 4000 fps.</p>

			<hr />&nbsp;
			<p><br />
			<br />
			Ergonom&iacute;a<br />
			Su textura es suave y realmente c&oacute;moda para un agarre perfecto, lo que te permitir&aacute; hacer disparos en el momento justo.</p>

			<hr />&nbsp;
			<p><br />
			<br />
			Retro iluminado.Con su dise&ntilde;o retroiluminado dale m&aacute;s realismo a tus batallas y vence a tus enemigos con un solo click.</p>
			</td>
		</tr>
	</tbody>
</table>

<p>&nbsp;</p>

<p>&nbsp;</p>

<hr />
<p>&nbsp;</p>
",,,,Negro
KB-502,"Gamer STG","Teclado Gamer","Start The Game KB-502","Teclado Gamer retroiluminado KB-502",,"Ataca con precisi?n",,"El teclado gaming KB-502 de Vorago, gracias a su dise?o ergon?mico e iluminaci?n llevar?n tu juego a otro nivel, mejorando la experiencia en el campo de batalla. Adem?s cuenta con 12 teclas multimedia para facilitarte el trabajo.",,0,1,,,,,,
