channel__item__title,channel__item__link,channel__item__guid__#Text
logomarmol,http://www.marmolesmaga.com.mx/logomarmol/,http://www.marmolesmaga.com.mx/wp-content/uploads/2017/09/logomarmol.png
,,
,,
iconmaga,http://www.marmolesmaga.com.mx/iconmaga/,http://www.marmolesmaga.com.mx/wp-content/uploads/2017/09/iconmaga.png
,,
vineta,http://www.marmolesmaga.com.mx/vineta/,http://www.marmolesmaga.com.mx/wp-content/uploads/2017/09/vineta.png
,,
Pisos-de-marmol-4-5,http://www.marmolesmaga.com.mx/olympus-digital-camera-2/,http://www.marmolesmaga.com.mx/wp-content/uploads/2017/03/pisos-de-marmol-4-5.jpg
,,
,,
cubiertas-para-cocina-4-6,http://www.marmolesmaga.com.mx/cubiertas-para-cocina-4-6/,http://www.marmolesmaga.com.mx/wp-content/uploads/2017/03/cubiertas-para-cocina-4-6.jpg
,,
,,
marmoles en celaya,http://www.marmolesmaga.com.mx/13/,http://www.marmolesmaga.com.mx/wp-content/uploads/2014/08/13-1.png
,,
,,
12,http://www.marmolesmaga.com.mx/12/,http://www.marmolesmaga.com.mx/wp-content/uploads/2014/08/12-1.png
,,
,,
marmoles en Aguascalientes,http://www.marmolesmaga.com.mx/venta-de-granito-en-mexico-1-1-800x340-2/,http://www.marmolesmaga.com.mx/wp-content/uploads/2017/07/venta-de-granito-en-mexico-1-1-800x340.jpg
,,
,,
banner-1,http://www.marmolesmaga.com.mx/banner-1-2/,http://www.marmolesmaga.com.mx/wp-content/uploads/2017/08/banner-1.jpg
,,
marmoles,http://www.marmolesmaga.com.mx/marmoles-5/,http://www.marmolesmaga.com.mx/wp-content/uploads/2014/08/marmoles.jpg
,,
marmoles-2,http://www.marmolesmaga.com.mx/marmoles-2-2/,http://www.marmolesmaga.com.mx/wp-content/uploads/2014/08/marmoles-2.jpg
,,
marmoles-3,http://www.marmolesmaga.com.mx/marmoles-3-2/,http://www.marmolesmaga.com.mx/wp-content/uploads/2014/08/marmoles-3.jpg
,,
marmoles4,http://www.marmolesmaga.com.mx/marmoles4-2/,http://www.marmolesmaga.com.mx/wp-content/uploads/2014/08/marmoles4.jpg
,,
marmoles-5,http://www.marmolesmaga.com.mx/marmoles-5-2/,http://www.marmolesmaga.com.mx/wp-content/uploads/2014/08/marmoles-5.jpg
,,
marmoles-6,http://www.marmolesmaga.com.mx/marmoles-6/,http://www.marmolesmaga.com.mx/wp-content/uploads/2014/08/marmoles-6.jpg
,,
marmoles-8,http://www.marmolesmaga.com.mx/marmoles-8/,http://www.marmolesmaga.com.mx/wp-content/uploads/2014/08/marmoles-8.jpg
,,
promo-header,http://www.marmolesmaga.com.mx/promo-header/,http://www.marmolesmaga.com.mx/wp-content/uploads/2014/08/promo-header.jpg
,,
fondo,http://www.marmolesmaga.com.mx/fondo-8/,http://www.marmolesmaga.com.mx/wp-content/uploads/2017/09/fondo.jpg
,,
texts,http://www.marmolesmaga.com.mx/texts/,http://www.marmolesmaga.com.mx/wp-content/uploads/2017/09/texts.png
,,
fondokm,http://www.marmolesmaga.com.mx/fondokm/,http://www.marmolesmaga.com.mx/wp-content/uploads/2017/09/fondokm.png
,,
fondo,http://www.marmolesmaga.com.mx/fondo/,http://www.marmolesmaga.com.mx/wp-content/uploads/2017/09/fondo.png
,,
,,
,,
,,
f1,http://www.marmolesmaga.com.mx/f1/,http://www.marmolesmaga.com.mx/wp-content/uploads/2017/09/f1.png
,,
,,
placas para cubiertas,http://www.marmolesmaga.com.mx/placas-para-cubiertas/f3/,http://www.marmolesmaga.com.mx/wp-content/uploads/2017/09/f3.png
,,
,,
baños de marmol,http://www.marmolesmaga.com.mx/f2/,http://www.marmolesmaga.com.mx/wp-content/uploads/2017/09/f2.png
,,
,,
Pisos de marmol,http://www.marmolesmaga.com.mx/pisos-de-marmol/f4/,http://www.marmolesmaga.com.mx/wp-content/uploads/2017/09/f4.png
,,
,,
marmol,http://www.marmolesmaga.com.mx/f5/,http://www.marmolesmaga.com.mx/wp-content/uploads/2017/09/f5.png
,,
,,
f6,http://www.marmolesmaga.com.mx/f6/,http://www.marmolesmaga.com.mx/wp-content/uploads/2017/09/f6.png
,,
,,
altacalidad,http://www.marmolesmaga.com.mx/home/altacalidad/,http://www.marmolesmaga.com.mx/wp-content/uploads/2017/09/altacalidad.png
,,
,,
responsable,http://www.marmolesmaga.com.mx/home/responsable/,http://www.marmolesmaga.com.mx/wp-content/uploads/2017/09/responsable.png
,,
,,
envinacionales,http://www.marmolesmaga.com.mx/home/envinacionales/,http://www.marmolesmaga.com.mx/wp-content/uploads/2017/09/envinacionales.png
,,
,,
subscribe,http://www.marmolesmaga.com.mx/home/subscribe/,http://www.marmolesmaga.com.mx/wp-content/uploads/2017/09/subscribe.png
,,
elementos,http://www.marmolesmaga.com.mx/home/elementos/,http://www.marmolesmaga.com.mx/wp-content/uploads/2017/09/elementos.png
,,
kitchenico,http://www.marmolesmaga.com.mx/kitchenico/,http://www.marmolesmaga.com.mx/wp-content/uploads/2017/10/kitchenico.png
,,
libiico,http://www.marmolesmaga.com.mx/libiico/,http://www.marmolesmaga.com.mx/wp-content/uploads/2017/10/libiico.png
,,
cantera,http://www.marmolesmaga.com.mx/home/cantera-3/,http://www.marmolesmaga.com.mx/wp-content/uploads/2017/09/cantera.png
,,
,,
,,
cuarzo,http://www.marmolesmaga.com.mx/home/cuarzo-2/,http://www.marmolesmaga.com.mx/wp-content/uploads/2017/09/cuarzo.png
,,
,,
granito,http://www.marmolesmaga.com.mx/home/granito-2-2/,http://www.marmolesmaga.com.mx/wp-content/uploads/2017/09/granito.png
,,
,,
,,
marmol,http://www.marmolesmaga.com.mx/home/marmol-2/,http://www.marmolesmaga.com.mx/wp-content/uploads/2017/09/marmol.png
,,
,,
contactpic,http://www.marmolesmaga.com.mx/contacto/contactpic/,http://www.marmolesmaga.com.mx/wp-content/uploads/2017/09/contactpic.png
,,
contpic2,http://www.marmolesmaga.com.mx/contacto/contpic2/,http://www.marmolesmaga.com.mx/wp-content/uploads/2017/09/contpic2.png
,,
marmoles,http://www.marmolesmaga.com.mx/nosotros/marmoles/,http://www.marmolesmaga.com.mx/wp-content/uploads/2017/10/marmoles.png
,,
libi,http://www.marmolesmaga.com.mx/nosotros/libi/,http://www.marmolesmaga.com.mx/wp-content/uploads/2017/10/libi.png
,,
magakitchen,http://www.marmolesmaga.com.mx/nosotros/magakitchen/,http://www.marmolesmaga.com.mx/wp-content/uploads/2017/10/magakitchen.png
,,
exp2,http://www.marmolesmaga.com.mx/exportacion/exp2/,http://www.marmolesmaga.com.mx/wp-content/uploads/2017/10/exp2.png
,,
exp3,http://www.marmolesmaga.com.mx/exportacion/exp3/,http://www.marmolesmaga.com.mx/wp-content/uploads/2017/10/exp3.png
,,
exp1,http://www.marmolesmaga.com.mx/exportacion/exp1/,http://www.marmolesmaga.com.mx/wp-content/uploads/2017/10/exp1.png
,,
exp55,http://www.marmolesmaga.com.mx/exp55/,http://www.marmolesmaga.com.mx/wp-content/uploads/2017/10/exp55.png
,,
exp88,http://www.marmolesmaga.com.mx/exp88/,http://www.marmolesmaga.com.mx/wp-content/uploads/2017/10/exp88.png
,,
exp33,http://www.marmolesmaga.com.mx/exp33/,http://www.marmolesmaga.com.mx/wp-content/uploads/2017/10/exp33.png
,,
exp44,http://www.marmolesmaga.com.mx/exp44/,http://www.marmolesmaga.com.mx/wp-content/uploads/2017/10/exp44.png
,,
exp66,http://www.marmolesmaga.com.mx/exp66/,http://www.marmolesmaga.com.mx/wp-content/uploads/2017/10/exp66.png
,,
exp77,http://www.marmolesmaga.com.mx/exp77/,http://www.marmolesmaga.com.mx/wp-content/uploads/2017/10/exp77.png
,,
exp22,http://www.marmolesmaga.com.mx/exp22/,http://www.marmolesmaga.com.mx/wp-content/uploads/2017/10/exp22.png
,,
exp11,http://www.marmolesmaga.com.mx/exp11/,http://www.marmolesmaga.com.mx/wp-content/uploads/2017/10/exp11.png
,,
exp99,http://www.marmolesmaga.com.mx/exp99/,http://www.marmolesmaga.com.mx/wp-content/uploads/2017/10/exp99.png
,,
exp00,http://www.marmolesmaga.com.mx/exp00/,http://www.marmolesmaga.com.mx/wp-content/uploads/2017/10/exp00.png
,,
icon,http://www.marmolesmaga.com.mx/icon/,http://www.marmolesmaga.com.mx/wp-content/uploads/2017/10/icon.png
,,
Pisos de marmol,http://www.marmolesmaga.com.mx/proyectos/proy8/,http://www.marmolesmaga.com.mx/wp-content/uploads/2017/09/proy8.png
,,
,,
Casa Aldana,http://www.marmolesmaga.com.mx/proyectos/pry5/,http://www.marmolesmaga.com.mx/wp-content/uploads/2017/09/pry5.png
,,
Casa Mazadiego,http://www.marmolesmaga.com.mx/proyectos/proy9/,http://www.marmolesmaga.com.mx/wp-content/uploads/2017/09/proy9.png
,,
,,
Departamento Santa Fé,http://www.marmolesmaga.com.mx/proyectos/proy7/,http://www.marmolesmaga.com.mx/wp-content/uploads/2017/09/proy7.png
,,
Casa C. Johnson,http://www.marmolesmaga.com.mx/proyectos/proy6/,http://www.marmolesmaga.com.mx/wp-content/uploads/2017/09/proy6.png
,,
Obra Ing. Yaffar,http://www.marmolesmaga.com.mx/proyectos/proy3/,http://www.marmolesmaga.com.mx/wp-content/uploads/2017/09/proy3.png
,,
Hotel Cancún,http://www.marmolesmaga.com.mx/proyectos/proy10/,http://www.marmolesmaga.com.mx/wp-content/uploads/2017/09/proy10.png
,,
Spa Mazarik,http://www.marmolesmaga.com.mx/proyectos/proy4/,http://www.marmolesmaga.com.mx/wp-content/uploads/2017/09/proy4.png
,,
Plaza Polanco oficina,http://www.marmolesmaga.com.mx/proyectos/proy2/,http://www.marmolesmaga.com.mx/wp-content/uploads/2017/09/proy2.png
,,
Terraza Sra. Delange,http://www.marmolesmaga.com.mx/proyectos/proy1/,http://www.marmolesmaga.com.mx/wp-content/uploads/2017/09/proy1.png
,,
edreforma,http://www.marmolesmaga.com.mx/proyectos/edreforma/,http://www.marmolesmaga.com.mx/wp-content/uploads/2017/09/edreforma.png
,,
marriot,http://www.marmolesmaga.com.mx/proyectos/marriot/,http://www.marmolesmaga.com.mx/wp-content/uploads/2017/09/marriot.png
,,
papalote,http://www.marmolesmaga.com.mx/proyectos/papalote/,http://www.marmolesmaga.com.mx/wp-content/uploads/2017/09/papalote.png
,,
fuente,http://www.marmolesmaga.com.mx/proyectos/fuente/,http://www.marmolesmaga.com.mx/wp-content/uploads/2017/09/fuente.png
,,
aero,http://www.marmolesmaga.com.mx/proyectos/aero/,http://www.marmolesmaga.com.mx/wp-content/uploads/2017/09/aero.png
,,
audi,http://www.marmolesmaga.com.mx/proyectos/audi/,http://www.marmolesmaga.com.mx/wp-content/uploads/2017/09/audi.png
,,
estacion,http://www.marmolesmaga.com.mx/proyectos/estacion/,http://www.marmolesmaga.com.mx/wp-content/uploads/2017/09/estacion.png
,,
blancoveneciano,http://www.marmolesmaga.com.mx/producto/blanco-veneciano/blancoveneciano/,http://www.marmolesmaga.com.mx/wp-content/uploads/2017/10/blancoveneciano.png
,,
comedor,http://www.marmolesmaga.com.mx/producto/blanco-veneciano/comedor/,http://www.marmolesmaga.com.mx/wp-content/uploads/2017/10/comedor.png
,,
bano,http://www.marmolesmaga.com.mx/producto/blanco-veneciano/bano/,http://www.marmolesmaga.com.mx/wp-content/uploads/2017/10/bano.png
,,
sala1,http://www.marmolesmaga.com.mx/producto/blanco-veneciano/sala1/,http://www.marmolesmaga.com.mx/wp-content/uploads/2017/10/sala1.png
,,
terraza,http://www.marmolesmaga.com.mx/producto/blanco-veneciano/terraza/,http://www.marmolesmaga.com.mx/wp-content/uploads/2017/10/terraza.png
,,
habitacion1,http://www.marmolesmaga.com.mx/producto/blanco-veneciano/habitacion1/,http://www.marmolesmaga.com.mx/wp-content/uploads/2017/10/habitacion1.png
,,
travertinorojo,http://www.marmolesmaga.com.mx/producto/travertino-rojo/travertinorojo/,http://www.marmolesmaga.com.mx/wp-content/uploads/2017/10/travertinorojo.png
,,
travertinoveteado,http://www.marmolesmaga.com.mx/producto/travertino-veteado/travertinoveteado/,http://www.marmolesmaga.com.mx/wp-content/uploads/2017/10/travertinoveteado.png
,,
doradotepeji,http://www.marmolesmaga.com.mx/doradotepeji/,http://www.marmolesmaga.com.mx/wp-content/uploads/2017/10/doradotepeji.png
,,
santotomascepillado,http://www.marmolesmaga.com.mx/santotomascepillado/,http://www.marmolesmaga.com.mx/wp-content/uploads/2017/10/santotomascepillado.png
,,
santotomas,http://www.marmolesmaga.com.mx/santotomas/,http://www.marmolesmaga.com.mx/wp-content/uploads/2017/10/santotomas.png
,,
doradotepejiavejentado,http://www.marmolesmaga.com.mx/doradotepejiavejentado/,http://www.marmolesmaga.com.mx/wp-content/uploads/2017/10/doradotepejiavejentado.png
,,
cafetabaco,http://www.marmolesmaga.com.mx/cafetabaco/,http://www.marmolesmaga.com.mx/wp-content/uploads/2017/10/cafetabaco.png
,,
travertinofiorito,http://www.marmolesmaga.com.mx/travertinofiorito/,http://www.marmolesmaga.com.mx/wp-content/uploads/2017/10/travertinofiorito.png
,,
cremabellagio,http://www.marmolesmaga.com.mx/cremabellagio/,http://www.marmolesmaga.com.mx/wp-content/uploads/2017/10/cremabellagio.png
,,
negromonterrey,http://www.marmolesmaga.com.mx/negromonterrey/,http://www.marmolesmaga.com.mx/wp-content/uploads/2017/10/negromonterrey.png
,,
travertino,http://www.marmolesmaga.com.mx/travertino/,http://www.marmolesmaga.com.mx/wp-content/uploads/2017/10/travertino.png
,,
gristepeca,http://www.marmolesmaga.com.mx/gristepeca/,http://www.marmolesmaga.com.mx/wp-content/uploads/2017/10/gristepeca.png
,,
blancoperla,http://www.marmolesmaga.com.mx/blancoperla/,http://www.marmolesmaga.com.mx/wp-content/uploads/2017/10/blancoperla.png
,,
travertinoshara,http://www.marmolesmaga.com.mx/travertinoshara/,http://www.marmolesmaga.com.mx/wp-content/uploads/2017/10/travertinoshara.png
,,
bcodurango,http://www.marmolesmaga.com.mx/bcodurango/,http://www.marmolesmaga.com.mx/wp-content/uploads/2017/10/bcodurango.png
,,
beigemaya,http://www.marmolesmaga.com.mx/beigemaya/,http://www.marmolesmaga.com.mx/wp-content/uploads/2017/10/beigemaya.png
,,
durazno,http://www.marmolesmaga.com.mx/durazno/,http://www.marmolesmaga.com.mx/wp-content/uploads/2017/10/durazno.png
,,
marfilselecto,http://www.marmolesmaga.com.mx/marfilselecto/,http://www.marmolesmaga.com.mx/wp-content/uploads/2017/10/marfilselecto.jpg
,,
verdetical,http://www.marmolesmaga.com.mx/verdetical/,http://www.marmolesmaga.com.mx/wp-content/uploads/2017/10/verdetical.jpg
,,
carraraprimera,http://www.marmolesmaga.com.mx/carraraprimera/,http://www.marmolesmaga.com.mx/wp-content/uploads/2017/10/carraraprimera.jpg
,,
arabescatovenato,http://www.marmolesmaga.com.mx/arabescatovenato/,http://www.marmolesmaga.com.mx/wp-content/uploads/2017/10/arabescatovenato.jpg
,,
brownforest,http://www.marmolesmaga.com.mx/brownforest/,http://www.marmolesmaga.com.mx/wp-content/uploads/2017/10/brownforest.jpg
,,
portorogold,http://www.marmolesmaga.com.mx/portorogold/,http://www.marmolesmaga.com.mx/wp-content/uploads/2017/10/portorogold.jpg
,,
grisatenas,http://www.marmolesmaga.com.mx/grisatenas/,http://www.marmolesmaga.com.mx/wp-content/uploads/2017/10/grisatenas.jpg
,,
galalahondeado,http://www.marmolesmaga.com.mx/galalahondeado/,http://www.marmolesmaga.com.mx/wp-content/uploads/2017/10/galalahondeado.jpg
,,
rojoalicante,http://www.marmolesmaga.com.mx/rojoalicante/,http://www.marmolesmaga.com.mx/wp-content/uploads/2017/10/rojoalicante.jpg
,,
calacatagold,http://www.marmolesmaga.com.mx/calacatagold/,http://www.marmolesmaga.com.mx/wp-content/uploads/2017/10/calacatagold.jpg
,,
alivery,http://www.marmolesmaga.com.mx/alivery/,http://www.marmolesmaga.com.mx/wp-content/uploads/2017/10/alivery.jpg
,,
gialliosilia,http://www.marmolesmaga.com.mx/gialliosilia/,http://www.marmolesmaga.com.mx/wp-content/uploads/2017/10/gialliosilia.jpg
,,
negromarquina,http://www.marmolesmaga.com.mx/negromarquina/,http://www.marmolesmaga.com.mx/wp-content/uploads/2017/10/negromarquina.jpg
,,
marfilcomercial,http://www.marmolesmaga.com.mx/marfilcomercial/,http://www.marmolesmaga.com.mx/wp-content/uploads/2017/10/marfilcomercial.jpg
,,
woodenwhite,http://www.marmolesmaga.com.mx/woodenwhite/,http://www.marmolesmaga.com.mx/wp-content/uploads/2017/10/woodenwhite.jpg
,,
arabescatocorchia,http://www.marmolesmaga.com.mx/arabescatocorchia/,http://www.marmolesmaga.com.mx/wp-content/uploads/2017/10/arabescatocorchia.jpg
,,
ameperbrown,http://www.marmolesmaga.com.mx/ameperbrown/,http://www.marmolesmaga.com.mx/wp-content/uploads/2017/10/ameperbrown.jpg
,,
nestos,http://www.marmolesmaga.com.mx/nestos/,http://www.marmolesmaga.com.mx/wp-content/uploads/2017/10/nestos.jpg
,,
blancothassos,http://www.marmolesmaga.com.mx/blancothassos/,http://www.marmolesmaga.com.mx/wp-content/uploads/2017/10/blancothassos.jpg
,,
eramosa,http://www.marmolesmaga.com.mx/eramosa/,http://www.marmolesmaga.com.mx/wp-content/uploads/2017/10/eramosa.jpg
,,
greenforest,http://www.marmolesmaga.com.mx/greenforest/,http://www.marmolesmaga.com.mx/wp-content/uploads/2017/10/greenforest.jpg
,,
marfiliera,http://www.marmolesmaga.com.mx/marfiliera/,http://www.marmolesmaga.com.mx/wp-content/uploads/2017/10/marfiliera.jpg
,,
carraracomercial,http://www.marmolesmaga.com.mx/carraracomercial/,http://www.marmolesmaga.com.mx/wp-content/uploads/2017/10/carraracomercial.jpg
,,
marronemperador,http://www.marmolesmaga.com.mx/marronemperador/,http://www.marmolesmaga.com.mx/wp-content/uploads/2017/10/marronemperador.jpg
,,
equator,http://www.marmolesmaga.com.mx/equator/,http://www.marmolesmaga.com.mx/wp-content/uploads/2017/10/equator.jpg
,,
blancoperlino,http://www.marmolesmaga.com.mx/blancoperlino/,http://www.marmolesmaga.com.mx/wp-content/uploads/2017/10/blancoperlino.jpg
,,
sunnylight,http://www.marmolesmaga.com.mx/sunnylight/,http://www.marmolesmaga.com.mx/wp-content/uploads/2017/10/sunnylight.jpg
,,
volakas,http://www.marmolesmaga.com.mx/volakas/,http://www.marmolesmaga.com.mx/wp-content/uploads/2017/10/volakas.jpg
,,
fachada,http://www.marmolesmaga.com.mx/producto/santa-cecilia/fachada/,http://www.marmolesmaga.com.mx/wp-content/uploads/2017/10/fachada.png
,,
cocina,http://www.marmolesmaga.com.mx/producto/santa-cecilia/cocina/,http://www.marmolesmaga.com.mx/wp-content/uploads/2017/10/cocina.png
,,
santacecilia,http://www.marmolesmaga.com.mx/producto/santa-cecilia/santacecilia/,http://www.marmolesmaga.com.mx/wp-content/uploads/2017/10/santacecilia.jpg
,,
alivery2,http://www.marmolesmaga.com.mx/producto/alivery/alivery2/,http://www.marmolesmaga.com.mx/wp-content/uploads/2017/10/alivery2.jpg
,,
eramosa,http://www.marmolesmaga.com.mx/producto/eramosa/eramosa-2/,http://www.marmolesmaga.com.mx/wp-content/uploads/2017/10/eramosa-1.jpg
,,
volakas,http://www.marmolesmaga.com.mx/producto/volakas/volakas-2/,http://www.marmolesmaga.com.mx/wp-content/uploads/2017/10/volakas-1.jpg
,,
negromarquina,http://www.marmolesmaga.com.mx/producto/negro-marquina/negromarquina-2/,http://www.marmolesmaga.com.mx/wp-content/uploads/2017/10/negromarquina-1.jpg
,,
portorogold,http://www.marmolesmaga.com.mx/producto/portoro-gold/portorogold-2/,http://www.marmolesmaga.com.mx/wp-content/uploads/2017/10/portorogold-1.jpg
,,
gialiosilia,http://www.marmolesmaga.com.mx/producto/gialio-silia/gialiosilia/,http://www.marmolesmaga.com.mx/wp-content/uploads/2017/10/gialiosilia.jpg
,,
nestos,http://www.marmolesmaga.com.mx/producto/nestos/nestos-2/,http://www.marmolesmaga.com.mx/wp-content/uploads/2017/10/nestos-1.jpg
,,
marronemperador,http://www.marmolesmaga.com.mx/producto/marron-emperador/marronemperador-2/,http://www.marmolesmaga.com.mx/wp-content/uploads/2017/10/marronemperador-1.jpg
,,
woodenwhite,http://www.marmolesmaga.com.mx/producto/wooden-white/woodenwhite-2/,http://www.marmolesmaga.com.mx/wp-content/uploads/2017/10/woodenwhite-1.jpg
,,
amperbrown,http://www.marmolesmaga.com.mx/producto/amper-brown/amperbrown/,http://www.marmolesmaga.com.mx/wp-content/uploads/2017/10/amperbrown.jpg
,,
marfilera,http://www.marmolesmaga.com.mx/producto/marfilera/marfilera-2/,http://www.marmolesmaga.com.mx/wp-content/uploads/2017/10/marfilera.jpg
,,
galalahondeado,http://www.marmolesmaga.com.mx/producto/galala-hondeado/galalahondeado-2/,http://www.marmolesmaga.com.mx/wp-content/uploads/2017/10/galalahondeado-1.jpg
,,
arabescatovenato,http://www.marmolesmaga.com.mx/producto/arabescato-venato/arabescatovenato-2/,http://www.marmolesmaga.com.mx/wp-content/uploads/2017/10/arabescatovenato-1.jpg
,,
brownforest,http://www.marmolesmaga.com.mx/producto/brown-forest/brownforest-2/,http://www.marmolesmaga.com.mx/wp-content/uploads/2017/10/brownforest-1.jpg
,,
greenforest,http://www.marmolesmaga.com.mx/producto/green-forest/greenforest-2/,http://www.marmolesmaga.com.mx/wp-content/uploads/2017/10/greenforest-1.jpg
,,
rojoali,http://www.marmolesmaga.com.mx/producto/rojo-alicante/rojoali/,http://www.marmolesmaga.com.mx/wp-content/uploads/2017/10/rojoali.jpg
,,
sunnyli,http://www.marmolesmaga.com.mx/producto/sunny-light/sunnyli/,http://www.marmolesmaga.com.mx/wp-content/uploads/2017/10/sunnyli.jpg
,,
arabescocorchia,http://www.marmolesmaga.com.mx/producto/arabesco-corchia/arabescocorchia/,http://www.marmolesmaga.com.mx/wp-content/uploads/2017/10/arabescocorchia.jpg
,,
carraracomer,http://www.marmolesmaga.com.mx/producto/carrara-comercial/carraracomer/,http://www.marmolesmaga.com.mx/wp-content/uploads/2017/10/carraracomer.jpg
,,
blancoperlino,http://www.marmolesmaga.com.mx/producto/blanco-perlino/blancoperlino-2/,http://www.marmolesmaga.com.mx/wp-content/uploads/2017/10/blancoperlino-1.jpg
,,
bcotassos,http://www.marmolesmaga.com.mx/producto/blanco-thassos/bcotassos/,http://www.marmolesmaga.com.mx/wp-content/uploads/2017/10/bcotassos.jpg
,,
calacatagold,http://www.marmolesmaga.com.mx/producto/calacatta-gold/calacatagold-2/,http://www.marmolesmaga.com.mx/wp-content/uploads/2017/10/calacatagold-1.jpg
,,
carraraprimer,http://www.marmolesmaga.com.mx/producto/carrara-primera/carraraprimer/,http://www.marmolesmaga.com.mx/wp-content/uploads/2017/10/carraraprimer.jpg
,,
cremamcomer,http://www.marmolesmaga.com.mx/producto/crema-marfil-comercial/cremamcomer/,http://www.marmolesmaga.com.mx/wp-content/uploads/2017/10/cremamcomer.jpg
,,
cremamselect,http://www.marmolesmaga.com.mx/producto/crema-marfil-selecto/cremamselect/,http://www.marmolesmaga.com.mx/wp-content/uploads/2017/10/cremamselect.jpg
,,
equator,http://www.marmolesmaga.com.mx/producto/equator/equator-2/,http://www.marmolesmaga.com.mx/wp-content/uploads/2017/10/equator-1.jpg
,,
verdetikal1,http://www.marmolesmaga.com.mx/producto/verde-tikal/verdetikal1/,http://www.marmolesmaga.com.mx/wp-content/uploads/2017/10/verdetikal1.jpg
,,
stacecilia,http://www.marmolesmaga.com.mx/producto/santa-cecilia/stacecilia/,http://www.marmolesmaga.com.mx/wp-content/uploads/2017/10/stacecilia.jpg
,,
beigemaya,http://www.marmolesmaga.com.mx/producto/beige-maya/beigemaya-2/,http://www.marmolesmaga.com.mx/wp-content/uploads/2017/10/beigemaya.jpg
,,
doradotepejiav,http://www.marmolesmaga.com.mx/producto/dorado-tepeji-avejentado/doradotepejiav/,http://www.marmolesmaga.com.mx/wp-content/uploads/2017/10/doradotepejiav.jpg
,,
dortepeij,http://www.marmolesmaga.com.mx/producto/dorado-tepeji/dortepeij/,http://www.marmolesmaga.com.mx/wp-content/uploads/2017/10/dortepeij.jpg
,,
stotomas,http://www.marmolesmaga.com.mx/producto/gris-santo-tomas/stotomas/,http://www.marmolesmaga.com.mx/wp-content/uploads/2017/10/stotomas.jpg
,,
gristepeca,http://www.marmolesmaga.com.mx/producto/gris-tepeca/gristepeca-2/,http://www.marmolesmaga.com.mx/wp-content/uploads/2017/10/gristepeca.jpg
,,
negromty,http://www.marmolesmaga.com.mx/producto/negro-monterrey/negromty/,http://www.marmolesmaga.com.mx/wp-content/uploads/2017/10/negromty.jpg
,,
durazno,http://www.marmolesmaga.com.mx/producto/durazno/durazno-2/,http://www.marmolesmaga.com.mx/wp-content/uploads/2017/10/durazno.jpg
,,
stotomascep,http://www.marmolesmaga.com.mx/producto/santo-tomas-cepillado/stotomascep/,http://www.marmolesmaga.com.mx/wp-content/uploads/2017/10/stotomascep.jpg
,,
travant,http://www.marmolesmaga.com.mx/producto/travertino-fiorito-anticado/travant/,http://www.marmolesmaga.com.mx/wp-content/uploads/2017/10/travant.jpg
,,
travveteado,http://www.marmolesmaga.com.mx/producto/travertino-veteado/travveteado/,http://www.marmolesmaga.com.mx/wp-content/uploads/2017/10/travveteado.jpg
,,
travrojo,http://www.marmolesmaga.com.mx/producto/travertino-rojo/travrojo/,http://www.marmolesmaga.com.mx/wp-content/uploads/2017/10/travrojo.jpg
,,
bcoveneciano,http://www.marmolesmaga.com.mx/producto/blanco-veneciano/bcoveneciano/,http://www.marmolesmaga.com.mx/wp-content/uploads/2017/10/bcoveneciano.jpg
,,
cafetabaco,http://www.marmolesmaga.com.mx/producto/cafe-tabaco/cafetabaco-2/,http://www.marmolesmaga.com.mx/wp-content/uploads/2017/10/cafetabaco.jpg
,,
cremabellagio,http://www.marmolesmaga.com.mx/producto/crema-bellagio/cremabellagio-2/,http://www.marmolesmaga.com.mx/wp-content/uploads/2017/10/cremabellagio.jpg
,,
bcodurango,http://www.marmolesmaga.com.mx/producto/blanco-durango/bcodurango-2/,http://www.marmolesmaga.com.mx/wp-content/uploads/2017/10/bcodurango.jpg
,,
bcoperla,http://www.marmolesmaga.com.mx/producto/blanco-perla/bcoperla/,http://www.marmolesmaga.com.mx/wp-content/uploads/2017/10/bcoperla.jpg
,,
traverfio,http://www.marmolesmaga.com.mx/producto/travertino-fiorito/traverfio/,http://www.marmolesmaga.com.mx/wp-content/uploads/2017/10/traverfio.jpg
,,
raversaha,http://www.marmolesmaga.com.mx/producto/travertino-sahara/raversaha/,http://www.marmolesmaga.com.mx/wp-content/uploads/2017/10/raversaha.jpg
,,
phahkfbkanjmngca,http://www.marmolesmaga.com.mx/promociones/phahkfbkanjmngca/,http://www.marmolesmaga.com.mx/wp-content/uploads/2017/10/phahkfbkanjmngca.jpg
,,
marmol-gris-atenas,http://www.marmolesmaga.com.mx/producto/gris-atenas-2/marmol-gris-atenas/,http://www.marmolesmaga.com.mx/wp-content/uploads/2017/10/marmol-gris-atenas.jpg
,,
ala-de-mosca-azul,http://www.marmolesmaga.com.mx/producto/ala-de-mosca-azul/ala-de-mosca-azul-2/,http://www.marmolesmaga.com.mx/wp-content/uploads/2017/10/ala-de-mosca-azul.jpg
,,
amarillo-ornamental,http://www.marmolesmaga.com.mx/producto/ala-de-mosca-azul/amarillo-ornamental/,http://www.marmolesmaga.com.mx/wp-content/uploads/2017/10/amarillo-ornamental.jpg
,,
amarillo-oxido,http://www.marmolesmaga.com.mx/producto/ala-de-mosca-azul/amarillo-oxido/,http://www.marmolesmaga.com.mx/wp-content/uploads/2017/10/amarillo-oxido.jpg
,,
antique-brown,http://www.marmolesmaga.com.mx/producto/ala-de-mosca-azul/antique-brown/,http://www.marmolesmaga.com.mx/wp-content/uploads/2017/10/antique-brown.jpg
,,
azul-platino,http://www.marmolesmaga.com.mx/producto/ala-de-mosca-azul/azul-platino/,http://www.marmolesmaga.com.mx/wp-content/uploads/2017/10/azul-platino.jpg
,,
baltic-brown,http://www.marmolesmaga.com.mx/producto/ala-de-mosca-azul/baltic-brown/,http://www.marmolesmaga.com.mx/wp-content/uploads/2017/10/baltic-brown.jpg
,,
carioca-gold,http://www.marmolesmaga.com.mx/producto/ala-de-mosca-azul/carioca-gold/,http://www.marmolesmaga.com.mx/wp-content/uploads/2017/10/carioca-gold.jpg
,,
crema-julia,http://www.marmolesmaga.com.mx/producto/ala-de-mosca-azul/crema-julia/,http://www.marmolesmaga.com.mx/wp-content/uploads/2017/10/crema-julia.jpg
,,
dallas,http://www.marmolesmaga.com.mx/producto/ala-de-mosca-azul/dallas/,http://www.marmolesmaga.com.mx/wp-content/uploads/2017/10/dallas.jpg
,,
ebony-finish-leather,http://www.marmolesmaga.com.mx/producto/ala-de-mosca-azul/ebony-finish-leather/,http://www.marmolesmaga.com.mx/wp-content/uploads/2017/10/ebony-finish-leather.jpg
,,
granito-emerald-pearl,http://www.marmolesmaga.com.mx/producto/ala-de-mosca-azul/granito-emerald-pearl/,http://www.marmolesmaga.com.mx/wp-content/uploads/2017/10/granito-emerald-pearl.jpg
,,
granito-gris-oxford-flameado,http://www.marmolesmaga.com.mx/producto/ala-de-mosca-azul/granito-gris-oxford-flameado/,http://www.marmolesmaga.com.mx/wp-content/uploads/2017/10/granito-gris-oxford-flameado.jpg
,,
granito-gris-perla,http://www.marmolesmaga.com.mx/producto/ala-de-mosca-azul/granito-gris-perla/,http://www.marmolesmaga.com.mx/wp-content/uploads/2017/10/granito-gris-perla.jpg
,,
granito-grissal-flameado,http://www.marmolesmaga.com.mx/producto/ala-de-mosca-azul/granito-grissal-flameado/,http://www.marmolesmaga.com.mx/wp-content/uploads/2017/10/granito-grissal-flameado.jpg
,,
granito-grissal,http://www.marmolesmaga.com.mx/producto/ala-de-mosca-azul/granito-grissal/,http://www.marmolesmaga.com.mx/wp-content/uploads/2017/10/granito-grissal.jpg
,,
granito-negro-absoluto,http://www.marmolesmaga.com.mx/producto/ala-de-mosca-azul/granito-negro-absoluto/,http://www.marmolesmaga.com.mx/wp-content/uploads/2017/10/granito-negro-absoluto.jpg
,,
granito-negro-davola,http://www.marmolesmaga.com.mx/producto/ala-de-mosca-azul/granito-negro-davola/,http://www.marmolesmaga.com.mx/wp-content/uploads/2017/10/granito-negro-davola.jpg
,,
granito-santa-cecilia,http://www.marmolesmaga.com.mx/producto/ala-de-mosca-azul/granito-santa-cecilia/,http://www.marmolesmaga.com.mx/wp-content/uploads/2017/10/granito-santa-cecilia.jpg
,,
granito-via-lactea,http://www.marmolesmaga.com.mx/producto/ala-de-mosca-azul/granito-via-lactea/,http://www.marmolesmaga.com.mx/wp-content/uploads/2017/10/granito-via-lactea.jpg
,,
gris-oxford,http://www.marmolesmaga.com.mx/producto/ala-de-mosca-azul/gris-oxford/,http://www.marmolesmaga.com.mx/wp-content/uploads/2017/10/gris-oxford.jpg
,,
layer-9,http://www.marmolesmaga.com.mx/producto/ala-de-mosca-azul/layer-9/,http://www.marmolesmaga.com.mx/wp-content/uploads/2017/10/layer-9.jpg
,,
negro-austral-flameado,http://www.marmolesmaga.com.mx/producto/ala-de-mosca-azul/negro-austral-flameado/,http://www.marmolesmaga.com.mx/wp-content/uploads/2017/10/negro-austral-flameado.jpg
,,
negro-galaxy,http://www.marmolesmaga.com.mx/producto/ala-de-mosca-azul/negro-galaxy/,http://www.marmolesmaga.com.mx/wp-content/uploads/2017/10/negro-galaxy.jpg
,,
negro-impala,http://www.marmolesmaga.com.mx/producto/ala-de-mosca-azul/negro-impala/,http://www.marmolesmaga.com.mx/wp-content/uploads/2017/10/negro-impala.jpg
,,
negro-san-gabriel-leather,http://www.marmolesmaga.com.mx/producto/ala-de-mosca-azul/negro-san-gabriel-leather/,http://www.marmolesmaga.com.mx/wp-content/uploads/2017/10/negro-san-gabriel-leather.jpg
,,
negro-san-gabriel,http://www.marmolesmaga.com.mx/producto/ala-de-mosca-azul/negro-san-gabriel/,http://www.marmolesmaga.com.mx/wp-content/uploads/2017/10/negro-san-gabriel.jpg
,,
rojo-brasilia,http://www.marmolesmaga.com.mx/producto/ala-de-mosca-azul/rojo-brasilia/,http://www.marmolesmaga.com.mx/wp-content/uploads/2017/10/rojo-brasilia.jpg
,,
rosa-porrino,http://www.marmolesmaga.com.mx/producto/ala-de-mosca-azul/rosa-porrino/,http://www.marmolesmaga.com.mx/wp-content/uploads/2017/10/rosa-porrino.jpg
,,
verde-ubatuba,http://www.marmolesmaga.com.mx/producto/ala-de-mosca-azul/verde-ubatuba/,http://www.marmolesmaga.com.mx/wp-content/uploads/2017/10/verde-ubatuba.jpg
,,
verdeubatuba-polished,http://www.marmolesmaga.com.mx/producto/ala-de-mosca-azul/verdeubatuba-polished/,http://www.marmolesmaga.com.mx/wp-content/uploads/2017/10/verdeubatuba-polished.jpg
,,
white-waves,http://www.marmolesmaga.com.mx/producto/ala-de-mosca-azul/white-waves/,http://www.marmolesmaga.com.mx/wp-content/uploads/2017/10/white-waves.jpg
,,
azul-macaubas,http://www.marmolesmaga.com.mx/producto/azul-macaubas/azul-macaubas/,http://www.marmolesmaga.com.mx/wp-content/uploads/2017/10/azul-macaubas.jpg
,,
black-cosmic,http://www.marmolesmaga.com.mx/producto/azul-macaubas/black-cosmic/,http://www.marmolesmaga.com.mx/wp-content/uploads/2017/10/black-cosmic.jpg
,,
blak-titanium,http://www.marmolesmaga.com.mx/producto/azul-macaubas/blak-titanium/,http://www.marmolesmaga.com.mx/wp-content/uploads/2017/10/blak-titanium.jpg
,,
blanco-itaunas,http://www.marmolesmaga.com.mx/producto/azul-macaubas/blanco-itaunas/,http://www.marmolesmaga.com.mx/wp-content/uploads/2017/10/blanco-itaunas.jpg
,,
blanco-romano,http://www.marmolesmaga.com.mx/producto/azul-macaubas/blanco-romano/,http://www.marmolesmaga.com.mx/wp-content/uploads/2017/10/blanco-romano.jpg
,,
blue-garden,http://www.marmolesmaga.com.mx/producto/azul-macaubas/blue-garden/,http://www.marmolesmaga.com.mx/wp-content/uploads/2017/10/blue-garden.jpg
,,
bordeaux,http://www.marmolesmaga.com.mx/producto/azul-macaubas/bordeaux/,http://www.marmolesmaga.com.mx/wp-content/uploads/2017/10/bordeaux.jpg
,,
ceara-classic,http://www.marmolesmaga.com.mx/producto/azul-macaubas/ceara-classic/,http://www.marmolesmaga.com.mx/wp-content/uploads/2017/10/ceara-classic.jpg
,,
celebrity,http://www.marmolesmaga.com.mx/producto/azul-macaubas/celebrity/,http://www.marmolesmaga.com.mx/wp-content/uploads/2017/10/celebrity.jpg
,,
crema-delicatus,http://www.marmolesmaga.com.mx/producto/azul-macaubas/crema-delicatus/,http://www.marmolesmaga.com.mx/wp-content/uploads/2017/10/crema-delicatus.jpg
,,
cristalita-blank,http://www.marmolesmaga.com.mx/producto/azul-macaubas/cristalita-blank/,http://www.marmolesmaga.com.mx/wp-content/uploads/2017/10/cristalita-blank.jpg
,,
delmare,http://www.marmolesmaga.com.mx/producto/azul-macaubas/delmare/,http://www.marmolesmaga.com.mx/wp-content/uploads/2017/10/delmare.jpg
,,
fusion-midnight,http://www.marmolesmaga.com.mx/producto/azul-macaubas/fusion-midnight/,http://www.marmolesmaga.com.mx/wp-content/uploads/2017/10/fusion-midnight.jpg
,,
fusion,http://www.marmolesmaga.com.mx/producto/azul-macaubas/fusion/,http://www.marmolesmaga.com.mx/wp-content/uploads/2017/10/fusion.jpg
,,
giallo-fiorito,http://www.marmolesmaga.com.mx/producto/azul-macaubas/giallo-fiorito/,http://www.marmolesmaga.com.mx/wp-content/uploads/2017/10/giallo-fiorito.jpg
,,
giallo-west,http://www.marmolesmaga.com.mx/producto/azul-macaubas/giallo-west/,http://www.marmolesmaga.com.mx/wp-content/uploads/2017/10/giallo-west.jpg
,,
giotto,http://www.marmolesmaga.com.mx/producto/azul-macaubas/giotto/,http://www.marmolesmaga.com.mx/wp-content/uploads/2017/10/giotto.jpg
,,
kalahari,http://www.marmolesmaga.com.mx/producto/azul-macaubas/kalahari/,http://www.marmolesmaga.com.mx/wp-content/uploads/2017/10/kalahari.jpg
,,
marmore-shadow-strom,http://www.marmolesmaga.com.mx/producto/azul-macaubas/marmore-shadow-strom/,http://www.marmolesmaga.com.mx/wp-content/uploads/2017/10/marmore-shadow-strom.jpg
,,
matira,http://www.marmolesmaga.com.mx/producto/azul-macaubas/matira/,http://www.marmolesmaga.com.mx/wp-content/uploads/2017/10/matira.jpg
,,
new-venetian-gold,http://www.marmolesmaga.com.mx/producto/azul-macaubas/new-venetian-gold/,http://www.marmolesmaga.com.mx/wp-content/uploads/2017/10/new-venetian-gold.jpg
,,
preto-bahia-polido,http://www.marmolesmaga.com.mx/producto/azul-macaubas/preto-bahia-polido/,http://www.marmolesmaga.com.mx/wp-content/uploads/2017/10/preto-bahia-polido.jpg
,,
preto-sao-gabriel,http://www.marmolesmaga.com.mx/producto/azul-macaubas/preto-sao-gabriel/,http://www.marmolesmaga.com.mx/wp-content/uploads/2017/10/preto-sao-gabriel.jpg
,,
pretp-bahia-leather-finish,http://www.marmolesmaga.com.mx/producto/azul-macaubas/pretp-bahia-leather-finish/,http://www.marmolesmaga.com.mx/wp-content/uploads/2017/10/pretp-bahia-leather-finish.jpg
,,
royal-blue,http://www.marmolesmaga.com.mx/producto/azul-macaubas/royal-blue/,http://www.marmolesmaga.com.mx/wp-content/uploads/2017/10/royal-blue.jpg
,,
sagitarios,http://www.marmolesmaga.com.mx/producto/azul-macaubas/sagitarios/,http://www.marmolesmaga.com.mx/wp-content/uploads/2017/10/sagitarios.jpg
,,
samba,http://www.marmolesmaga.com.mx/producto/azul-macaubas/samba/,http://www.marmolesmaga.com.mx/wp-content/uploads/2017/10/samba.jpg
,,
santa-cecilia-classico,http://www.marmolesmaga.com.mx/producto/azul-macaubas/santa-cecilia-classico/,http://www.marmolesmaga.com.mx/wp-content/uploads/2017/10/santa-cecilia-classico.jpg
,,
santa-cecilia-light,http://www.marmolesmaga.com.mx/producto/azul-macaubas/santa-cecilia-light/,http://www.marmolesmaga.com.mx/wp-content/uploads/2017/10/santa-cecilia-light.jpg
,,
santa-cecilia-toledo,http://www.marmolesmaga.com.mx/producto/azul-macaubas/santa-cecilia-toledo/,http://www.marmolesmaga.com.mx/wp-content/uploads/2017/10/santa-cecilia-toledo.jpg
,,
siena-beige,http://www.marmolesmaga.com.mx/producto/azul-macaubas/siena-beige/,http://www.marmolesmaga.com.mx/wp-content/uploads/2017/10/siena-beige.jpg
,,
splendour-blue,http://www.marmolesmaga.com.mx/producto/azul-macaubas/splendour-blue/,http://www.marmolesmaga.com.mx/wp-content/uploads/2017/10/splendour-blue.jpg
,,
taj-mahal,http://www.marmolesmaga.com.mx/producto/azul-macaubas/taj-mahal/,http://www.marmolesmaga.com.mx/wp-content/uploads/2017/10/taj-mahal.jpg
,,
venetian-ice,http://www.marmolesmaga.com.mx/producto/azul-macaubas/venetian-ice/,http://www.marmolesmaga.com.mx/wp-content/uploads/2017/10/venetian-ice.jpg
,,
verde-pavao,http://www.marmolesmaga.com.mx/producto/azul-macaubas/verde-pavao/,http://www.marmolesmaga.com.mx/wp-content/uploads/2017/10/verde-pavao.jpg
,,
verde-peacock,http://www.marmolesmaga.com.mx/producto/azul-macaubas/verde-peacock/,http://www.marmolesmaga.com.mx/wp-content/uploads/2017/10/verde-peacock.jpg
,,
via-lactea,http://www.marmolesmaga.com.mx/producto/azul-macaubas/via-lactea-2/,http://www.marmolesmaga.com.mx/wp-content/uploads/2017/10/via-lactea.jpg
,,
victoria-falls,http://www.marmolesmaga.com.mx/producto/azul-macaubas/victoria-falls/,http://www.marmolesmaga.com.mx/wp-content/uploads/2017/10/victoria-falls.jpg
,,
whit-bahamas,http://www.marmolesmaga.com.mx/producto/azul-macaubas/whit-bahamas/,http://www.marmolesmaga.com.mx/wp-content/uploads/2017/10/whit-bahamas.jpg
,,
white-calacatta,http://www.marmolesmaga.com.mx/producto/azul-macaubas/white-calacatta/,http://www.marmolesmaga.com.mx/wp-content/uploads/2017/10/white-calacatta.jpg
,,
white-ceara,http://www.marmolesmaga.com.mx/producto/azul-macaubas/white-ceara/,http://www.marmolesmaga.com.mx/wp-content/uploads/2017/10/white-ceara.jpg
,,
white-macaubas,http://www.marmolesmaga.com.mx/producto/azul-macaubas/white-macaubas/,http://www.marmolesmaga.com.mx/wp-content/uploads/2017/10/white-macaubas.jpg
,,
cuarzo-albsolut-white,http://www.marmolesmaga.com.mx/producto/albsolut-white/cuarzo-albsolut-white/,http://www.marmolesmaga.com.mx/wp-content/uploads/2017/10/cuarzo-albsolut-white.jpg
,,
cuarzo-amarillo,http://www.marmolesmaga.com.mx/producto/albsolut-white/cuarzo-amarillo/,http://www.marmolesmaga.com.mx/wp-content/uploads/2017/10/cuarzo-amarillo.jpg
,,
cuarzo-amper-brown,http://www.marmolesmaga.com.mx/producto/albsolut-white/cuarzo-amper-brown/,http://www.marmolesmaga.com.mx/wp-content/uploads/2017/10/cuarzo-amper-brown.jpg
,,
cuarzo-brown-mirror,http://www.marmolesmaga.com.mx/producto/albsolut-white/cuarzo-brown-mirror/,http://www.marmolesmaga.com.mx/wp-content/uploads/2017/10/cuarzo-brown-mirror.jpg
,,
cuarzo-calacatta,http://www.marmolesmaga.com.mx/producto/albsolut-white/cuarzo-calacatta/,http://www.marmolesmaga.com.mx/wp-content/uploads/2017/10/cuarzo-calacatta.jpg
,,
cuarzo-capri,http://www.marmolesmaga.com.mx/producto/albsolut-white/cuarzo-capri/,http://www.marmolesmaga.com.mx/wp-content/uploads/2017/10/cuarzo-capri.jpg
,,
cuarzo-carrara,http://www.marmolesmaga.com.mx/producto/albsolut-white/cuarzo-carrara/,http://www.marmolesmaga.com.mx/wp-content/uploads/2017/10/cuarzo-carrara.jpg
,,
cuarzo-cream,http://www.marmolesmaga.com.mx/producto/albsolut-white/cuarzo-cream/,http://www.marmolesmaga.com.mx/wp-content/uploads/2017/10/cuarzo-cream.jpg
,,
cuarzo-crema-absoluto,http://www.marmolesmaga.com.mx/producto/albsolut-white/cuarzo-crema-absoluto/,http://www.marmolesmaga.com.mx/wp-content/uploads/2017/10/cuarzo-crema-absoluto.jpg
,,
cuarzo-diamante,http://www.marmolesmaga.com.mx/producto/albsolut-white/cuarzo-diamante/,http://www.marmolesmaga.com.mx/wp-content/uploads/2017/10/cuarzo-diamante.jpg
,,
cuarzo-fem-light,http://www.marmolesmaga.com.mx/producto/albsolut-white/cuarzo-fem-light/,http://www.marmolesmaga.com.mx/wp-content/uploads/2017/10/cuarzo-fem-light.jpg
,,
cuarzo-gem-beige,http://www.marmolesmaga.com.mx/producto/albsolut-white/cuarzo-gem-beige/,http://www.marmolesmaga.com.mx/wp-content/uploads/2017/10/cuarzo-gem-beige.jpg
,,
cuarzo-gem,http://www.marmolesmaga.com.mx/producto/albsolut-white/cuarzo-gem/,http://www.marmolesmaga.com.mx/wp-content/uploads/2017/10/cuarzo-gem.jpg
,,
cuarzo-grey-light,http://www.marmolesmaga.com.mx/producto/albsolut-white/cuarzo-grey-light/,http://www.marmolesmaga.com.mx/wp-content/uploads/2017/10/cuarzo-grey-light.jpg
,,
cuarzo-grey-mirrror,http://www.marmolesmaga.com.mx/producto/albsolut-white/cuarzo-grey-mirrror/,http://www.marmolesmaga.com.mx/wp-content/uploads/2017/10/cuarzo-grey-mirrror.jpg
,,
cuarzo-gris-oxford,http://www.marmolesmaga.com.mx/producto/albsolut-white/cuarzo-gris-oxford/,http://www.marmolesmaga.com.mx/wp-content/uploads/2017/10/cuarzo-gris-oxford.jpg
,,
cuarzo-lime,http://www.marmolesmaga.com.mx/producto/albsolut-white/cuarzo-lime/,http://www.marmolesmaga.com.mx/wp-content/uploads/2017/10/cuarzo-lime.jpg
,,
cuarzo-medium-white,http://www.marmolesmaga.com.mx/producto/albsolut-white/cuarzo-medium-white/,http://www.marmolesmaga.com.mx/wp-content/uploads/2017/10/cuarzo-medium-white.jpg
,,
cuarzo-negro-absoluto,http://www.marmolesmaga.com.mx/producto/albsolut-white/cuarzo-negro-absoluto/,http://www.marmolesmaga.com.mx/wp-content/uploads/2017/10/cuarzo-negro-absoluto.jpg
,,
cuarzo-negro-galaxy,http://www.marmolesmaga.com.mx/producto/albsolut-white/cuarzo-negro-galaxy/,http://www.marmolesmaga.com.mx/wp-content/uploads/2017/10/cuarzo-negro-galaxy.jpg
,,
cuarzo-oceano,http://www.marmolesmaga.com.mx/producto/albsolut-white/cuarzo-oceano/,http://www.marmolesmaga.com.mx/wp-content/uploads/2017/10/cuarzo-oceano.jpg
,,
cuarzo-orange,http://www.marmolesmaga.com.mx/producto/albsolut-white/cuarzo-orange/,http://www.marmolesmaga.com.mx/wp-content/uploads/2017/10/cuarzo-orange.jpg
,,
cuarzo-perlino,http://www.marmolesmaga.com.mx/producto/albsolut-white/cuarzo-perlino/,http://www.marmolesmaga.com.mx/wp-content/uploads/2017/10/cuarzo-perlino.jpg
,,
cuarzo-red-mirror,http://www.marmolesmaga.com.mx/producto/albsolut-white/cuarzo-red-mirror/,http://www.marmolesmaga.com.mx/wp-content/uploads/2017/10/cuarzo-red-mirror.jpg
,,
cuarzo-white-special,http://www.marmolesmaga.com.mx/producto/albsolut-white/cuarzo-white-special/,http://www.marmolesmaga.com.mx/wp-content/uploads/2017/10/cuarzo-white-special.jpg
,,
adoquin-natural-rosa,http://www.marmolesmaga.com.mx/adoquin-natural-rosa/,http://www.marmolesmaga.com.mx/wp-content/uploads/2017/10/adoquin-natural-rosa.jpg
,,
caliza-azul-bateig,http://www.marmolesmaga.com.mx/caliza-azul-bateig/,http://www.marmolesmaga.com.mx/wp-content/uploads/2017/10/caliza-azul-bateig.jpg
,,
caliza-capri-web,http://www.marmolesmaga.com.mx/caliza-capri-web/,http://www.marmolesmaga.com.mx/wp-content/uploads/2017/10/caliza-capri-web.jpg
,,
caliza-niwala-yellow,http://www.marmolesmaga.com.mx/caliza-niwala-yellow/,http://www.marmolesmaga.com.mx/wp-content/uploads/2017/10/caliza-niwala-yellow.jpg
,,
cantera-america-negra,http://www.marmolesmaga.com.mx/cantera-america-negra/,http://www.marmolesmaga.com.mx/wp-content/uploads/2017/10/cantera-america-negra.jpg
,,
cantera-america-roja,http://www.marmolesmaga.com.mx/cantera-america-roja/,http://www.marmolesmaga.com.mx/wp-content/uploads/2017/10/cantera-america-roja.jpg
,,
cantera-blanca-galarza,http://www.marmolesmaga.com.mx/cantera-blanca-galarza/,http://www.marmolesmaga.com.mx/wp-content/uploads/2017/10/cantera-blanca-galarza.jpg
,,
cantera-blanca-luxor,http://www.marmolesmaga.com.mx/cantera-blanca-luxor/,http://www.marmolesmaga.com.mx/wp-content/uploads/2017/10/cantera-blanca-luxor.jpg
,,
cantera-blanca-mexicana,http://www.marmolesmaga.com.mx/cantera-blanca-mexicana/,http://www.marmolesmaga.com.mx/wp-content/uploads/2017/10/cantera-blanca-mexicana.jpg
,,
cantera-blanca-pachica,http://www.marmolesmaga.com.mx/cantera-blanca-pachica/,http://www.marmolesmaga.com.mx/wp-content/uploads/2017/10/cantera-blanca-pachica.jpg
,,
cantera-conchuela,http://www.marmolesmaga.com.mx/cantera-conchuela/,http://www.marmolesmaga.com.mx/wp-content/uploads/2017/10/cantera-conchuela.jpg
,,
cantera-gris-remedios,http://www.marmolesmaga.com.mx/cantera-gris-remedios/,http://www.marmolesmaga.com.mx/wp-content/uploads/2017/10/cantera-gris-remedios.jpg
,,
cantera-naranja-mexicana,http://www.marmolesmaga.com.mx/cantera-naranja-mexicana/,http://www.marmolesmaga.com.mx/wp-content/uploads/2017/10/cantera-naranja-mexicana.jpg
,,
cantera-tikul,http://www.marmolesmaga.com.mx/cantera-tikul/,http://www.marmolesmaga.com.mx/wp-content/uploads/2017/10/cantera-tikul.jpg
,,
cuarcita-miracema,http://www.marmolesmaga.com.mx/cuarcita-miracema/,http://www.marmolesmaga.com.mx/wp-content/uploads/2017/10/cuarcita-miracema.jpg
,,
marmol-santo-tomas-machetado,http://www.marmolesmaga.com.mx/marmol-santo-tomas-machetado/,http://www.marmolesmaga.com.mx/wp-content/uploads/2017/10/marmol-santo-tomas-machetado.jpg
,,
morisca,http://www.marmolesmaga.com.mx/morisca/,http://www.marmolesmaga.com.mx/wp-content/uploads/2017/10/morisca.jpg
,,
pizarra-copper,http://www.marmolesmaga.com.mx/pizarra-copper/,http://www.marmolesmaga.com.mx/wp-content/uploads/2017/10/pizarra-copper.jpg
,,
pizarra-multicolor,http://www.marmolesmaga.com.mx/pizarra-multicolor/,http://www.marmolesmaga.com.mx/wp-content/uploads/2017/10/pizarra-multicolor.jpg
,,
pizarra-negra-calibrada,http://www.marmolesmaga.com.mx/pizarra-negra-calibrada/,http://www.marmolesmaga.com.mx/wp-content/uploads/2017/10/pizarra-negra-calibrada.jpg
,,
pizarra-silver,http://www.marmolesmaga.com.mx/pizarra-silver/,http://www.marmolesmaga.com.mx/wp-content/uploads/2017/10/pizarra-silver.jpg
,,
porfido,http://www.marmolesmaga.com.mx/porfido/,http://www.marmolesmaga.com.mx/wp-content/uploads/2017/10/porfido.jpg
,,
rainbow-sandstone,http://www.marmolesmaga.com.mx/rainbow-sandstone/,http://www.marmolesmaga.com.mx/wp-content/uploads/2017/10/rainbow-sandstone.jpg
,,
recinto-negro-por-cerrado,http://www.marmolesmaga.com.mx/recinto-negro-por-cerrado/,http://www.marmolesmaga.com.mx/wp-content/uploads/2017/10/recinto-negro-por-cerrado.jpg
,,
recintoporoabierto,http://www.marmolesmaga.com.mx/recintoporoabierto/,http://www.marmolesmaga.com.mx/wp-content/uploads/2017/10/recintoporoabierto.jpg
,,
teakwood-sandstone,http://www.marmolesmaga.com.mx/teakwood-sandstone/,http://www.marmolesmaga.com.mx/wp-content/uploads/2017/10/teakwood-sandstone.jpg
,,
calacatakitchen,http://www.marmolesmaga.com.mx/calacatakitchen/,http://www.marmolesmaga.com.mx/wp-content/uploads/2017/10/calacatakitchen.png
,,
,,
marmol,http://www.marmolesmaga.com.mx/marmol/marmol-3/,http://www.marmolesmaga.com.mx/wp-content/uploads/2017/10/marmol.png
,,
,,
sign,http://www.marmolesmaga.com.mx/contacto/sign/,http://www.marmolesmaga.com.mx/wp-content/uploads/2017/09/sign.png
,,
nos3,http://www.marmolesmaga.com.mx/nosotros/nos3/,http://www.marmolesmaga.com.mx/wp-content/uploads/2017/10/nos3.png
,,
,,
nos4,http://www.marmolesmaga.com.mx/nosotros/nos4/,http://www.marmolesmaga.com.mx/wp-content/uploads/2017/10/nos4.png
,,
,,
nos2,http://www.marmolesmaga.com.mx/nosotros/nos2/,http://www.marmolesmaga.com.mx/wp-content/uploads/2017/10/nos2.png
,,
,,
nos5,http://www.marmolesmaga.com.mx/nosotros/nos5/,http://www.marmolesmaga.com.mx/wp-content/uploads/2017/10/nos5.png
,,
canteras y marmoles,http://www.marmolesmaga.com.mx/nosotros/nos1/,http://www.marmolesmaga.com.mx/wp-content/uploads/2017/10/nos1.png
,,
,,
mazadiego,http://www.marmolesmaga.com.mx/proyectos/mazadiego/,http://www.marmolesmaga.com.mx/wp-content/uploads/2017/09/mazadiego.png
,,
,,
ntafe,http://www.marmolesmaga.com.mx/proyectos/ntafe/,http://www.marmolesmaga.com.mx/wp-content/uploads/2017/09/ntafe.png
,,
baños de marmol,http://www.marmolesmaga.com.mx/proyectos/affar/,http://www.marmolesmaga.com.mx/wp-content/uploads/2017/09/affar.png
,,
,,
baños de marmol,http://www.marmolesmaga.com.mx/proyectos/polanco/,http://www.marmolesmaga.com.mx/wp-content/uploads/2017/09/polanco.png
,,
,,
marmol,http://www.marmolesmaga.com.mx/proyectos/centrodeconv/,http://www.marmolesmaga.com.mx/wp-content/uploads/2017/09/centrodeconv.png
,,
,,
hotelcancun,http://www.marmolesmaga.com.mx/proyectos/hotelcancun/,http://www.marmolesmaga.com.mx/wp-content/uploads/2017/09/hotelcancun.png
,,
spamazarik,http://www.marmolesmaga.com.mx/proyectos/spamazarik/,http://www.marmolesmaga.com.mx/wp-content/uploads/2017/09/spamazarik.png
,,
casaaldana,http://www.marmolesmaga.com.mx/proyectos/casaaldana/,http://www.marmolesmaga.com.mx/wp-content/uploads/2017/09/casaaldana.png
,,
delange,http://www.marmolesmaga.com.mx/proyectos/delange/,http://www.marmolesmaga.com.mx/wp-content/uploads/2017/09/delange.png
,,
cubiertas para baño,http://www.marmolesmaga.com.mx/proyectos/cjohnson/,http://www.marmolesmaga.com.mx/wp-content/uploads/2017/09/cjohnson.png
,,
,,
marmoleslogop,http://www.marmolesmaga.com.mx/marmoleslogop/,http://www.marmolesmaga.com.mx/wp-content/uploads/2017/10/marmoleslogop.png
,,
,,
2017,http://www.marmolesmaga.com.mx/promociones/attachment/2017/,http://www.marmolesmaga.com.mx/wp-content/uploads/2017/10/2017.png
,,
marmoles en celaya,http://www.marmolesmaga.com.mx/los-marmoles-en-celaya-un-material-de-construccion-precioso-y-muy-resistente/proyectos3-1/,http://www.marmolesmaga.com.mx/wp-content/uploads/2017/08/proyectos3-1.jpg
,,
,,
cuarzo-silver-night,http://www.marmolesmaga.com.mx/granito-cuarzo-cubiertas-cocina-materiales-ideales-se-quiere-espacio-estetico-durable/cuarzo-silver-night/,http://www.marmolesmaga.com.mx/wp-content/uploads/2017/08/cuarzo-silver-night.jpg
,,
,,
pisos de marmol,http://www.marmolesmaga.com.mx/el-taj-mahal-un-monumento-de-marmol/taj-mahal-1-800x340/,http://www.marmolesmaga.com.mx/wp-content/uploads/2016/04/taj-mahal-1-800x340.jpg
,,
,,
nosmaga2,http://www.marmolesmaga.com.mx/nosotros/nosmaga2/,http://www.marmolesmaga.com.mx/wp-content/uploads/2017/10/nosmaga2.png
,,
nosmaga1,http://www.marmolesmaga.com.mx/nosotros/nosmaga1/,http://www.marmolesmaga.com.mx/wp-content/uploads/2017/10/nosmaga1.png
,,
marmol-blanco-a-solo-45,http://www.marmolesmaga.com.mx/promociones/marmol-blanco-a-solo-45/,http://www.marmolesmaga.com.mx/wp-content/uploads/2017/10/marmol-blanco-a-solo-45.jpg
,,
pisos-de-marmol-compressor,http://www.marmolesmaga.com.mx/me-conviene-elegir-pisos-de-marmol/pisos-de-marmol-compressor/,http://www.marmolesmaga.com.mx/wp-content/uploads/2017/11/pisos-de-marmol-compressor.jpg
,,
,,
cubiertas-para-cocina-n-1-compressor,http://www.marmolesmaga.com.mx/los-mejores-materiales-elegir-cubiertas-para-cocina/cubiertas-para-cocina-n-1-compressor/,http://www.marmolesmaga.com.mx/wp-content/uploads/2017/11/cubiertas-para-cocina-n-1-compressor.jpg
,,
,,
cantera-compressor,http://www.marmolesmaga.com.mx/cantera-consejos-mantener-cocina-limpia/cantera-compressor/,http://www.marmolesmaga.com.mx/wp-content/uploads/2017/11/cantera-compressor.jpg
,,
,,
promo-teka3,http://www.marmolesmaga.com.mx/promociones/promo-teka3/,http://www.marmolesmaga.com.mx/wp-content/uploads/2017/10/promo-teka3.jpg
,,
img_2132,http://www.marmolesmaga.com.mx/promociones/img_2132/,http://www.marmolesmaga.com.mx/wp-content/uploads/2017/10/img_2132.jpg
,,
img_2131,http://www.marmolesmaga.com.mx/promociones/img_2131/,http://www.marmolesmaga.com.mx/wp-content/uploads/2017/10/img_2131.jpg
,,
,,
banner-2-maga,http://www.marmolesmaga.com.mx/banner-2-maga/,http://www.marmolesmaga.com.mx/wp-content/uploads/2017/12/banner-2-maga.png
,,
promo-banner-min,http://www.marmolesmaga.com.mx/promo-banner-min/,http://www.marmolesmaga.com.mx/wp-content/uploads/2017/12/promo-banner-min.jpg
,,
banner-2-maga-min,http://www.marmolesmaga.com.mx/promociones/banner-2-maga-min/,http://www.marmolesmaga.com.mx/wp-content/uploads/2017/10/banner-2-maga-min.jpg
,,
marmoles-banner-1-min,http://www.marmolesmaga.com.mx/marmoles-banner-1-min/,http://www.marmolesmaga.com.mx/wp-content/uploads/2018/02/marmoles-banner-1-min.jpg
,,
fondo-min,http://www.marmolesmaga.com.mx/fondo-min/,http://www.marmolesmaga.com.mx/wp-content/uploads/2018/02/fondo-min.jpg
,,
texto,http://www.marmolesmaga.com.mx/texto/,http://www.marmolesmaga.com.mx/wp-content/uploads/2018/02/texto.png
,,
texto-descuento,http://www.marmolesmaga.com.mx/texto-descuento/,http://www.marmolesmaga.com.mx/wp-content/uploads/2018/02/texto-descuento.png
,,
oiofkkpodajjpbcj,http://www.marmolesmaga.com.mx/promociones/oiofkkpodajjpbcj/,http://www.marmolesmaga.com.mx/wp-content/uploads/2017/10/oiofkkpodajjpbcj.jpg
,,
texto,http://www.marmolesmaga.com.mx/texto-2/,http://www.marmolesmaga.com.mx/wp-content/uploads/2018/03/texto.png
,,
marmol,http://www.marmolesmaga.com.mx/fondo-2/,http://www.marmolesmaga.com.mx/wp-content/uploads/2018/03/fondo.jpg
,,
,,
promo-marzo-3-min,http://www.marmolesmaga.com.mx/promociones/promo-marzo-3-min/,http://www.marmolesmaga.com.mx/wp-content/uploads/2017/10/promo-marzo-3-min.jpg
,,
texto-2,http://www.marmolesmaga.com.mx/texto-2-2/,http://www.marmolesmaga.com.mx/wp-content/uploads/2018/03/texto-2.png
,,
banner-marzo-min,http://www.marmolesmaga.com.mx/promociones/banner-marzo-min/,http://www.marmolesmaga.com.mx/wp-content/uploads/2017/10/banner-marzo-min.jpg
,,
promo-madre,http://www.marmolesmaga.com.mx/promo-madre/,http://www.marmolesmaga.com.mx/wp-content/uploads/2018/04/promo-madre.jpg
,,
texto,http://www.marmolesmaga.com.mx/texto-3/,http://www.marmolesmaga.com.mx/wp-content/uploads/2018/04/texto.png
,,
corazon,http://www.marmolesmaga.com.mx/corazon/,http://www.marmolesmaga.com.mx/wp-content/uploads/2018/04/corazon.jpg
,,
cubiertas-para-cocina-i-m-9-compressor,http://www.marmolesmaga.com.mx/7-materiales-cubiertas-para-cocina/cubiertas-para-cocina-i-m-9-compressor/,http://www.marmolesmaga.com.mx/wp-content/uploads/2018/05/cubiertas-para-cocina-i-m-9-compressor.jpg
,,
,,
cubiertas-para-cocina-p-m-9-compressor,http://www.marmolesmaga.com.mx/7-materiales-cubiertas-para-cocina/cubiertas-para-cocina-p-m-9-compressor/,http://www.marmolesmaga.com.mx/wp-content/uploads/2018/05/cubiertas-para-cocina-p-m-9-compressor.jpg
,,
,,
wp,http://www.marmolesmaga.com.mx/wp/,http://www.marmolesmaga.com.mx/wp-content/uploads/2018/09/wp.png
,,
fono-maga2,http://www.marmolesmaga.com.mx/fono-maga2/,http://www.marmolesmaga.com.mx/wp-content/uploads/2018/09/fono-maga2.jpg
,,
fondo-maga1,http://www.marmolesmaga.com.mx/fondo-maga1/,http://www.marmolesmaga.com.mx/wp-content/uploads/2018/09/fondo-maga1.jpg
,,
fondo-maga3,http://www.marmolesmaga.com.mx/fondo-maga3/,http://www.marmolesmaga.com.mx/wp-content/uploads/2018/09/fondo-maga3.jpg
,,
texto-maga2,http://www.marmolesmaga.com.mx/texto-maga2/,http://www.marmolesmaga.com.mx/wp-content/uploads/2018/09/texto-maga2.png
,,
texto-maga1,http://www.marmolesmaga.com.mx/texto-maga1/,http://www.marmolesmaga.com.mx/wp-content/uploads/2018/09/texto-maga1.png
,,
texto-maga3,http://www.marmolesmaga.com.mx/texto-maga3/,http://www.marmolesmaga.com.mx/wp-content/uploads/2018/09/texto-maga3.png
,,
canteras-y-marmoles-sp-27-compressor,http://www.marmolesmaga.com.mx/uso-canteras-y-marmoles-revestimientos-exteriores/canteras-y-marmoles-sp-27-compressor/,http://www.marmolesmaga.com.mx/wp-content/uploads/2018/09/canteras-y-marmoles-sp-27-compressor.jpg
,,
,,
proyectos-con-marmol-cantera-y-granito-sp-27-compressor,http://www.marmolesmaga.com.mx/proyectos-con-marmol-cantera-y-granito/proyectos-con-marmol-cantera-y-granito-sp-27-compressor/,http://www.marmolesmaga.com.mx/wp-content/uploads/2018/09/proyectos-con-marmol-cantera-y-granito-sp-27-compressor.jpg
,,
,,
fondo-1,http://www.marmolesmaga.com.mx/fondo-1/,http://www.marmolesmaga.com.mx/wp-content/uploads/2018/09/fondo-1.jpg
,,
peg1,http://www.marmolesmaga.com.mx/peg1/,http://www.marmolesmaga.com.mx/wp-content/uploads/2018/09/peg1.png
,,
fondo-banner-2,http://www.marmolesmaga.com.mx/fondo-banner-2/,http://www.marmolesmaga.com.mx/wp-content/uploads/2018/09/fondo-banner-2.jpg
,,
texto-banner1,http://www.marmolesmaga.com.mx/texto-banner1/,http://www.marmolesmaga.com.mx/wp-content/uploads/2018/09/texto-banner1.png
,,
fondo-banner3,http://www.marmolesmaga.com.mx/fondo-banner3/,http://www.marmolesmaga.com.mx/wp-content/uploads/2018/09/fondo-banner3.jpg
,,
fondo-banner3,http://www.marmolesmaga.com.mx/fondo-banner3-2/,http://www.marmolesmaga.com.mx/wp-content/uploads/2018/09/fondo-banner3-1.jpg
,,
texto-banner-2,http://www.marmolesmaga.com.mx/texto-banner-2/,http://www.marmolesmaga.com.mx/wp-content/uploads/2018/09/texto-banner-2.png
,,
texto-banner-3,http://www.marmolesmaga.com.mx/texto-banner-3/,http://www.marmolesmaga.com.mx/wp-content/uploads/2018/09/texto-banner-3.jpg
,,
amarillo-granito,http://www.marmolesmaga.com.mx/amarillo-granito/,http://www.marmolesmaga.com.mx/wp-content/uploads/2018/09/amarillo-granito.png
,,
fondo1,http://www.marmolesmaga.com.mx/fondo1/,http://www.marmolesmaga.com.mx/wp-content/uploads/2018/10/fondo1.jpg
,,
banner-1-maga,http://www.marmolesmaga.com.mx/promociones/banner-1-maga/,http://www.marmolesmaga.com.mx/wp-content/uploads/2017/10/banner-1-maga.jpg
,,
banner-2-maga,http://www.marmolesmaga.com.mx/promociones/banner-2-maga-2/,http://www.marmolesmaga.com.mx/wp-content/uploads/2017/10/banner-2-maga.jpg
,,
image010,http://www.marmolesmaga.com.mx/promociones/image010/,http://www.marmolesmaga.com.mx/wp-content/uploads/2017/10/image010.jpg
,,
1,http://www.marmolesmaga.com.mx/1-3/,http://www.marmolesmaga.com.mx/wp-content/uploads/2018/11/1-1.jpg
,,
uno,http://www.marmolesmaga.com.mx/uno/,http://www.marmolesmaga.com.mx/wp-content/uploads/2018/11/uno.png
,,
dos,http://www.marmolesmaga.com.mx/dos/,http://www.marmolesmaga.com.mx/wp-content/uploads/2018/11/dos.png
,,
tres,http://www.marmolesmaga.com.mx/tres/,http://www.marmolesmaga.com.mx/wp-content/uploads/2018/11/tres.png
